{
  "m": {
    "cm": 100,
    "ft": 3.281,
    "in": 39.37,
    "km": 0.001,
    "m": 1,
    "mm": 1000,
    "yd": 1.094
  },
  "cm": {
    "cm": 1,
    "ft": 0.03281,
    "in": 0.3937,
    "km": 0.00001,
    "m": 0.01,
    "mm": 10,
    "yd": 0.01094
  },
  "ft": {
    "cm": 30.48,
    "ft": 1,
    "in": 12,
    "km": 0.0003048,
    "m": 0.3048,
    "mm": 304.8,
    "yd": 0.333333
  },
  "in": {
    "cm": 2.54,
    "ft": 0.083333,
    "in": 1,
    "km": 0.0000254,
    "m": 0.0254,
    "mm": 25.4,
    "yd": 0.027778
  },
  "km": {
    "cm": 100000,
    "ft": 3280.84,
    "in": 39370.1,
    "km": 1,
    "m": 1000,
    "mm": 1000000,
    "yd": 1093.61
  },
  "mm": {
    "cm": 0.1,
    "ft": 0.00328084,
    "in": 0.0393701,
    "km": 0.000001,
    "m": 0.001,
    "mm": 1,
    "yd": 0.00109361
  },
  "yd": {
    "cm": 91.44,
    "ft": 3,
    "in": 36,
    "km": 0.0009144,
    "m": 0.9144,
    "mm": 914.4,
    "yd": 1
  }
}